<?xml version="1.0" encoding="UTF-8" standalone="no"?>
<!-- Created with Inkscape (http://www.inkscape.org/) -->

<svg
   xmlns:dc="http://purl.org/dc/elements/1.1/"
   xmlns:cc="http://creativecommons.org/ns#"
   xmlns:rdf="http://www.w3.org/1999/02/22-rdf-syntax-ns#"
   xmlns:svg="http://www.w3.org/2000/svg"
   xmlns="http://www.w3.org/2000/svg"
   xmlns:sodipodi="http://sodipodi.sourceforge.net/DTD/sodipodi-0.dtd"
   xmlns:inkscape="http://www.inkscape.org/namespaces/inkscape"
   width="500"
   height="350"
   viewBox="0 0 500 350"
   id="svg2"
   version="1.1"
   inkscape:version="0.92.2 (5c3e80d, 2017-08-06)"
   sodipodi:docname="assets.svg">
  <defs
     id="defs4" />
  <sodipodi:namedview
     id="base"
     pagecolor="#ffffff"
     bordercolor="#666666"
     borderopacity="1.0"
     inkscape:pageopacity="0.0"
     inkscape:pageshadow="2"
     inkscape:zoom="2.3485714"
     inkscape:cx="272.49948"
     inkscape:cy="183.80668"
     inkscape:document-units="px"
     inkscape:current-layer="layer2"
     showgrid="true"
     units="px"
     width="100px"
     inkscape:snap-bbox="true"
     inkscape:bbox-nodes="true"
     showguides="true"
     inkscape:guide-bbox="true"
     inkscape:snap-object-midpoints="true"
     inkscape:window-width="1366"
     inkscape:window-height="685"
     inkscape:window-x="0"
     inkscape:window-y="0"
     inkscape:window-maximized="1"
     inkscape:snap-center="true"
     inkscape:snap-intersection-paths="false"
     inkscape:object-nodes="true">
    <inkscape:grid
       type="xygrid"
       id="grid3336" />
    <sodipodi:guide
       position="25,100"
       orientation="1,0"
       id="guide4166"
       inkscape:locked="false" />
    <sodipodi:guide
       position="75,100"
       orientation="1,0"
       id="guide4168"
       inkscape:locked="false" />
    <sodipodi:guide
       position="125,100"
       orientation="1,0"
       id="guide4170"
       inkscape:locked="false" />
    <sodipodi:guide
       position="175,100"
       orientation="1,0"
       id="guide4172"
       inkscape:locked="false" />
    <sodipodi:guide
       position="100,275"
       orientation="0,1"
       id="guide4174"
       inkscape:locked="false" />
    <sodipodi:guide
       position="100,175"
       orientation="0,1"
       id="guide4176"
       inkscape:locked="false" />
    <sodipodi:guide
       position="100,225"
       orientation="0,1"
       id="guide4178"
       inkscape:locked="false" />
    <sodipodi:guide
       position="100,125"
       orientation="0,1"
       id="guide4180"
       inkscape:locked="false" />
    <sodipodi:guide
       position="100,75"
       orientation="0,1"
       id="guide4446"
       inkscape:locked="false" />
    <sodipodi:guide
       position="100,25"
       orientation="0,1"
       id="guide4560"
       inkscape:locked="false" />
    <sodipodi:guide
       position="100,325"
       orientation="0,1"
       id="guide4223"
       inkscape:locked="false" />
  </sodipodi:namedview>
  <metadata
     id="metadata7">
    <rdf:RDF>
      <cc:Work
         rdf:about="">
        <dc:format>image/svg+xml</dc:format>
        <dc:type
           rdf:resource="http://purl.org/dc/dcmitype/StillImage" />
        <dc:title></dc:title>
      </cc:Work>
    </rdf:RDF>
  </metadata>
  <g
     inkscape:groupmode="layer"
     id="layer1"
     inkscape:label="superbackdrop"
     transform="translate(0,50)"
     style="display:inline">
    <rect
       style="fill:#f5f5f5;fill-opacity:0;stroke:none"
       id="rect4153"
       width="100"
       height="350"
       x="0"
       y="-50" />
    <rect
       y="-50"
       x="100"
       height="350"
       width="100"
       id="rect4155"
       style="fill:#555555;fill-opacity:0;stroke:none" />
  </g>
  <g
     inkscape:groupmode="layer"
     id="layer2"
     inkscape:label="assets"
     transform="translate(0,50)">
    <circle
       style="fill:#88cc00;fill-opacity:1;stroke:none"
       id="slider"
       cx="25"
       cy="-25"
       r="12"
       inkscape:label="#path4244" />
    <circle
       r="12"
       cy="-25"
       cx="125"
       id="slider-dark"
       style="fill:#ffffff;fill-opacity:1;stroke:none"
       inkscape:label="#circle4248" />
    <g
       id="slider-horz-scale-has-marks-above"
       inkscape:transform-center-y="-3"
       inkscape:label="#g4325"
       transform="translate(0,-50)">
      <path
         inkscape:transform-center-y="-2.4852819"
         inkscape:connector-curvature="0"
         id="circle4252"
         d="m 16.514719,66.514719 a 12,12 0 0 0 0,16.970562 12,12 0 0 0 16.970562,0 12,12 0 0 0 0,-16.970562 L 25,58.029437 Z"
         style="fill:#88cc00;fill-opacity:1;stroke:none" />
      <rect
         y="57"
         x="13"
         height="30"
         width="24"
         id="rect4295"
         style="color:#000000;clip-rule:nonzero;display:inline;overflow:visible;visibility:visible;opacity:1;isolation:auto;mix-blend-mode:normal;color-interpolation:sRGB;color-interpolation-filters:linearRGB;solid-color:#000000;solid-opacity:1;fill:none;fill-opacity:1;fill-rule:nonzero;stroke:none;stroke-width:1;stroke-linecap:butt;stroke-linejoin:miter;stroke-miterlimit:4;stroke-dasharray:none;stroke-dashoffset:0;stroke-opacity:1;color-rendering:auto;image-rendering:auto;shape-rendering:auto;text-rendering:auto;enable-background:accumulate" />
    </g>
    <g
       id="slider-horz-scale-has-marks-above-insensitive"
       inkscape:transform-center-y="-3"
       transform="translate(0,-50)"
       inkscape:label="#g4329">
      <path
         inkscape:transform-center-y="-2.4852819"
         inkscape:connector-curvature="0"
         style="color:#000000;clip-rule:nonzero;display:inline;overflow:visible;visibility:visible;opacity:1;isolation:auto;mix-blend-mode:normal;color-interpolation:sRGB;color-interpolation-filters:linearRGB;solid-color:#000000;solid-opacity:1;fill:#f5f5f5;fill-opacity:1;fill-rule:nonzero;stroke:none;stroke-width:1;stroke-linecap:butt;stroke-linejoin:miter;stroke-miterlimit:4;stroke-dasharray:none;stroke-dashoffset:0;stroke-opacity:1;color-rendering:auto;image-rendering:auto;shape-rendering:auto;text-rendering:auto;enable-background:accumulate"
         d="m 66.514719,66.514719 a 12,12 0 0 0 0,16.970562 12,12 0 0 0 16.970562,0 12,12 0 0 0 0,-16.970562 L 75,58.029437 Z"
         id="path4271" />
      <path
         style="fill:#000000;fill-opacity:0.09599998;stroke:none"
         d="m 66.514719,66.514719 a 12,12 0 0 0 0,16.970562 12,12 0 0 0 16.970562,0 12,12 0 0 0 0,-16.970562 L 75,58.029437 Z m 4.24264,4.24264 L 75,66.514719 l 4.242641,4.24264 a 6,6 0 0 1 0,8.485282 6,6 0 0 1 -8.485282,0 6,6 0 0 1 0,-8.485282 z"
         id="path4287"
         inkscape:connector-curvature="0" />
      <rect
         y="57"
         x="63"
         height="30"
         width="24"
         id="rect4297"
         style="color:#000000;clip-rule:nonzero;display:inline;overflow:visible;visibility:visible;opacity:1;isolation:auto;mix-blend-mode:normal;color-interpolation:sRGB;color-interpolation-filters:linearRGB;solid-color:#000000;solid-opacity:1;fill:none;fill-opacity:1;fill-rule:nonzero;stroke:none;stroke-width:1;stroke-linecap:butt;stroke-linejoin:miter;stroke-miterlimit:4;stroke-dasharray:none;stroke-dashoffset:0;stroke-opacity:1;color-rendering:auto;image-rendering:auto;shape-rendering:auto;text-rendering:auto;enable-background:accumulate" />
    </g>
    <g
       id="slider-insensitive"
       inkscape:label="#g4317"
       transform="translate(0,-50)">
      <circle
         style="fill:#f5f5f5;fill-opacity:1;stroke:none"
         id="circle4246"
         cx="75"
         cy="25"
         r="12" />
      <path
         style="fill:#000000;fill-opacity:0.09599998;stroke:none"
         d="M 75,13 A 12,12 0 0 0 63,25 12,12 0 0 0 75,37 12,12 0 0 0 87,25 12,12 0 0 0 75,13 Z m 0,6 a 6,6 0 0 1 6,6 6,6 0 0 1 -6,6 6,6 0 0 1 -6,-6 6,6 0 0 1 6,-6 z"
         id="circle4313"
         inkscape:connector-curvature="0" />
    </g>
    <g
       id="slider-insensitive-dark"
       inkscape:label="#g4321"
       transform="translate(0,-50)">
      <circle
         style="fill:#88cc00;fill-opacity:1;stroke:none"
         id="circle4250"
         cx="175"
         cy="25"
         r="12" />
      <path
         style="fill:#ffffff;fill-opacity:0.12000002;stroke:none"
         d="m 175,13 a 12,12 0 0 0 -12,12 12,12 0 0 0 12,12 12,12 0 0 0 12,-12 12,12 0 0 0 -12,-12 z m 0,6 a 6,6 0 0 1 6,6 6,6 0 0 1 -6,6 6,6 0 0 1 -6,-6 6,6 0 0 1 6,-6 z"
         id="circle4315"
         inkscape:connector-curvature="0" />
    </g>
    <g
       inkscape:transform-center-y="-3"
       id="slider-horz-scale-has-marks-above-dark"
       transform="translate(100,-50)"
       inkscape:label="#g4348">
      <path
         style="fill:#ffffff;fill-opacity:1;stroke:none"
         d="m 16.514719,66.514719 a 12,12 0 0 0 0,16.970562 12,12 0 0 0 16.970562,0 12,12 0 0 0 0,-16.970562 L 25,58.029437 Z"
         id="path4350"
         inkscape:connector-curvature="0"
         inkscape:transform-center-y="-2.4852819" />
      <rect
         style="color:#000000;clip-rule:nonzero;display:inline;overflow:visible;visibility:visible;opacity:1;isolation:auto;mix-blend-mode:normal;color-interpolation:sRGB;color-interpolation-filters:linearRGB;solid-color:#000000;solid-opacity:1;fill:none;fill-opacity:1;fill-rule:nonzero;stroke:none;stroke-width:1;stroke-linecap:butt;stroke-linejoin:miter;stroke-miterlimit:4;stroke-dasharray:none;stroke-dashoffset:0;stroke-opacity:1;color-rendering:auto;image-rendering:auto;shape-rendering:auto;text-rendering:auto;enable-background:accumulate"
         id="rect4352"
         width="24"
         height="30"
         x="13"
         y="57" />
    </g>
    <g
       inkscape:transform-center-y="-3"
       id="slider-horz-scale-has-marks-above-insensitive-dark"
       transform="translate(100,-50)"
       inkscape:label="#g4354">
      <path
         id="path4356"
         d="m 66.514719,66.514719 a 12,12 0 0 0 0,16.970562 12,12 0 0 0 16.970562,0 12,12 0 0 0 0,-16.970562 L 75,58.029437 Z"
         style="color:#000000;clip-rule:nonzero;display:inline;overflow:visible;visibility:visible;opacity:1;isolation:auto;mix-blend-mode:normal;color-interpolation:sRGB;color-interpolation-filters:linearRGB;solid-color:#000000;solid-opacity:1;fill:#88cc00;fill-opacity:1;fill-rule:nonzero;stroke:none;stroke-width:1;stroke-linecap:butt;stroke-linejoin:miter;stroke-miterlimit:4;stroke-dasharray:none;stroke-dashoffset:0;stroke-opacity:1;color-rendering:auto;image-rendering:auto;shape-rendering:auto;text-rendering:auto;enable-background:accumulate"
         inkscape:connector-curvature="0"
         inkscape:transform-center-y="-2.4852819" />
      <path
         style="color:#000000;clip-rule:nonzero;display:inline;overflow:visible;visibility:visible;opacity:1;isolation:auto;mix-blend-mode:normal;color-interpolation:sRGB;color-interpolation-filters:linearRGB;solid-color:#000000;solid-opacity:1;fill:#ffffff;fill-opacity:0.12000002;fill-rule:nonzero;stroke:none;stroke-width:1;stroke-linecap:butt;stroke-linejoin:miter;stroke-miterlimit:4;stroke-dasharray:none;stroke-dashoffset:0;stroke-opacity:1;color-rendering:auto;image-rendering:auto;shape-rendering:auto;text-rendering:auto;enable-background:accumulate"
         d="m 66.514719,66.514719 a 12,12 0 0 0 0,16.970562 12,12 0 0 0 16.970562,0 12,12 0 0 0 0,-16.970562 L 75,58.029437 Z m 4.24264,4.24264 L 75,66.514719 l 4.242641,4.24264 a 6,6 0 0 1 0,8.485282 6,6 0 0 1 -8.485282,0 6,6 0 0 1 0,-8.485282 z"
         id="path4358"
         inkscape:connector-curvature="0" />
      <rect
         style="color:#000000;clip-rule:nonzero;display:inline;overflow:visible;visibility:visible;opacity:1;isolation:auto;mix-blend-mode:normal;color-interpolation:sRGB;color-interpolation-filters:linearRGB;solid-color:#000000;solid-opacity:1;fill:none;fill-opacity:1;fill-rule:nonzero;stroke:none;stroke-width:1;stroke-linecap:butt;stroke-linejoin:miter;stroke-miterlimit:4;stroke-dasharray:none;stroke-dashoffset:0;stroke-opacity:1;color-rendering:auto;image-rendering:auto;shape-rendering:auto;text-rendering:auto;enable-background:accumulate"
         id="rect4360"
         width="24"
         height="30"
         x="63"
         y="57" />
    </g>
    <g
       inkscape:transform-center-y="3"
       id="slider-horz-scale-has-marks-below"
       transform="rotate(180,25,75)"
       inkscape:label="#g4362">
      <path
         style="fill:#88cc00;fill-opacity:1;stroke:none"
         d="m 16.514719,66.514719 a 12,12 0 0 0 0,16.970562 12,12 0 0 0 16.970562,0 12,12 0 0 0 0,-16.970562 L 25,58.029437 Z"
         id="path4364"
         inkscape:connector-curvature="0"
         inkscape:transform-center-y="-2.4852819" />
      <rect
         style="color:#000000;clip-rule:nonzero;display:inline;overflow:visible;visibility:visible;opacity:1;isolation:auto;mix-blend-mode:normal;color-interpolation:sRGB;color-interpolation-filters:linearRGB;solid-color:#000000;solid-opacity:1;fill:none;fill-opacity:1;fill-rule:nonzero;stroke:none;stroke-width:1;stroke-linecap:butt;stroke-linejoin:miter;stroke-miterlimit:4;stroke-dasharray:none;stroke-dashoffset:0;stroke-opacity:1;color-rendering:auto;image-rendering:auto;shape-rendering:auto;text-rendering:auto;enable-background:accumulate"
         id="rect4366"
         width="24"
         height="30"
         x="13"
         y="57" />
    </g>
    <g
       inkscape:transform-center-y="3"
       id="slider-horz-scale-has-marks-below-insensitive"
       transform="rotate(180,75,75)"
       inkscape:label="#g4368">
      <path
         id="path4370"
         d="m 66.514719,66.514719 a 12,12 0 0 0 0,16.970562 12,12 0 0 0 16.970562,0 12,12 0 0 0 0,-16.970562 L 75,58.029437 Z"
         style="color:#000000;clip-rule:nonzero;display:inline;overflow:visible;visibility:visible;opacity:1;isolation:auto;mix-blend-mode:normal;color-interpolation:sRGB;color-interpolation-filters:linearRGB;solid-color:#000000;solid-opacity:1;fill:#f5f5f5;fill-opacity:1;fill-rule:nonzero;stroke:none;stroke-width:1;stroke-linecap:butt;stroke-linejoin:miter;stroke-miterlimit:4;stroke-dasharray:none;stroke-dashoffset:0;stroke-opacity:1;color-rendering:auto;image-rendering:auto;shape-rendering:auto;text-rendering:auto;enable-background:accumulate"
         inkscape:connector-curvature="0"
         inkscape:transform-center-y="-2.4852819" />
      <path
         style="fill:#000000;fill-opacity:0.09599998;stroke:none"
         d="m 66.514719,66.514719 a 12,12 0 0 0 0,16.970562 12,12 0 0 0 16.970562,0 12,12 0 0 0 0,-16.970562 L 75,58.029437 Z m 4.24264,4.24264 L 75,66.514719 l 4.242641,4.24264 a 6,6 0 0 1 0,8.485282 6,6 0 0 1 -8.485282,0 6,6 0 0 1 0,-8.485282 z"
         id="path4372"
         inkscape:connector-curvature="0" />
      <rect
         style="color:#000000;clip-rule:nonzero;display:inline;overflow:visible;visibility:visible;opacity:1;isolation:auto;mix-blend-mode:normal;color-interpolation:sRGB;color-interpolation-filters:linearRGB;solid-color:#000000;solid-opacity:1;fill:none;fill-opacity:1;fill-rule:nonzero;stroke:none;stroke-width:1;stroke-linecap:butt;stroke-linejoin:miter;stroke-miterlimit:4;stroke-dasharray:none;stroke-dashoffset:0;stroke-opacity:1;color-rendering:auto;image-rendering:auto;shape-rendering:auto;text-rendering:auto;enable-background:accumulate"
         id="rect4374"
         width="24"
         height="30"
         x="63"
         y="57" />
    </g>
    <g
       transform="rotate(180,75,75)"
       id="slider-horz-scale-has-marks-below-dark"
       inkscape:transform-center-y="3"
       inkscape:label="#g4376">
      <path
         inkscape:transform-center-y="-2.4852819"
         inkscape:connector-curvature="0"
         id="path4378"
         d="m 16.514719,66.514719 a 12,12 0 0 0 0,16.970562 12,12 0 0 0 16.970562,0 12,12 0 0 0 0,-16.970562 L 25,58.029437 Z"
         style="fill:#ffffff;fill-opacity:1;stroke:none" />
      <rect
         y="57"
         x="13"
         height="30"
         width="24"
         id="rect4380"
         style="color:#000000;clip-rule:nonzero;display:inline;overflow:visible;visibility:visible;opacity:1;isolation:auto;mix-blend-mode:normal;color-interpolation:sRGB;color-interpolation-filters:linearRGB;solid-color:#000000;solid-opacity:1;fill:none;fill-opacity:1;fill-rule:nonzero;stroke:none;stroke-width:1;stroke-linecap:butt;stroke-linejoin:miter;stroke-miterlimit:4;stroke-dasharray:none;stroke-dashoffset:0;stroke-opacity:1;color-rendering:auto;image-rendering:auto;shape-rendering:auto;text-rendering:auto;enable-background:accumulate" />
    </g>
    <g
       transform="rotate(180,125,75)"
       id="slider-horz-scale-has-marks-below-insensitive-dark"
       inkscape:transform-center-y="3"
       inkscape:label="#g4382">
      <path
         inkscape:transform-center-y="-2.4852819"
         inkscape:connector-curvature="0"
         style="color:#000000;clip-rule:nonzero;display:inline;overflow:visible;visibility:visible;opacity:1;isolation:auto;mix-blend-mode:normal;color-interpolation:sRGB;color-interpolation-filters:linearRGB;solid-color:#000000;solid-opacity:1;fill:#88cc00;fill-opacity:1;fill-rule:nonzero;stroke:none;stroke-width:1;stroke-linecap:butt;stroke-linejoin:miter;stroke-miterlimit:4;stroke-dasharray:none;stroke-dashoffset:0;stroke-opacity:1;color-rendering:auto;image-rendering:auto;shape-rendering:auto;text-rendering:auto;enable-background:accumulate"
         d="m 66.514719,66.514719 a 12,12 0 0 0 0,16.970562 12,12 0 0 0 16.970562,0 12,12 0 0 0 0,-16.970562 L 75,58.029437 Z"
         id="path4384" />
      <path
         style="color:#000000;clip-rule:nonzero;display:inline;overflow:visible;visibility:visible;opacity:1;isolation:auto;mix-blend-mode:normal;color-interpolation:sRGB;color-interpolation-filters:linearRGB;solid-color:#000000;solid-opacity:1;fill:#ffffff;fill-opacity:0.12000002;fill-rule:nonzero;stroke:none;stroke-width:1;stroke-linecap:butt;stroke-linejoin:miter;stroke-miterlimit:4;stroke-dasharray:none;stroke-dashoffset:0;stroke-opacity:1;color-rendering:auto;image-rendering:auto;shape-rendering:auto;text-rendering:auto;enable-background:accumulate"
         d="m 66.514719,66.514719 a 12,12 0 0 0 0,16.970562 12,12 0 0 0 16.970562,0 12,12 0 0 0 0,-16.970562 L 75,58.029437 Z m 4.24264,4.24264 L 75,66.514719 l 4.242641,4.24264 a 6,6 0 0 1 0,8.485282 6,6 0 0 1 -8.485282,0 6,6 0 0 1 0,-8.485282 z"
         id="path4386"
         inkscape:connector-curvature="0" />
      <rect
         y="57"
         x="63"
         height="30"
         width="24"
         id="rect4388"
         style="color:#000000;clip-rule:nonzero;display:inline;overflow:visible;visibility:visible;opacity:1;isolation:auto;mix-blend-mode:normal;color-interpolation:sRGB;color-interpolation-filters:linearRGB;solid-color:#000000;solid-opacity:1;fill:none;fill-opacity:1;fill-rule:nonzero;stroke:none;stroke-width:1;stroke-linecap:butt;stroke-linejoin:miter;stroke-miterlimit:4;stroke-dasharray:none;stroke-dashoffset:0;stroke-opacity:1;color-rendering:auto;image-rendering:auto;shape-rendering:auto;text-rendering:auto;enable-background:accumulate" />
    </g>
    <g
       id="slider-vert-scale-has-marks-above"
       transform="rotate(-90,50,100)"
       inkscape:transform-center-x="3"
       inkscape:label="#g4390">
      <path
         style="fill:#88cc00;fill-opacity:1;stroke:none"
         d="m 16.514719,66.514719 a 12,12 0 0 0 0,16.970562 12,12 0 0 0 16.970562,0 12,12 0 0 0 0,-16.970562 L 25,58.029437 Z"
         id="path4392"
         inkscape:connector-curvature="0"
         inkscape:transform-center-y="-2.4852819" />
      <rect
         style="color:#000000;clip-rule:nonzero;display:inline;overflow:visible;visibility:visible;opacity:1;isolation:auto;mix-blend-mode:normal;color-interpolation:sRGB;color-interpolation-filters:linearRGB;solid-color:#000000;solid-opacity:1;fill:none;fill-opacity:1;fill-rule:nonzero;stroke:none;stroke-width:1;stroke-linecap:butt;stroke-linejoin:miter;stroke-miterlimit:4;stroke-dasharray:none;stroke-dashoffset:0;stroke-opacity:1;color-rendering:auto;image-rendering:auto;shape-rendering:auto;text-rendering:auto;enable-background:accumulate"
         id="rect4394"
         width="24"
         height="30"
         x="13"
         y="57" />
    </g>
    <g
       id="slider-vert-scale-has-marks-above-insensitive"
       transform="rotate(-90,100,100)"
       inkscape:transform-center-x="3"
       inkscape:label="#g4396">
      <path
         id="path4398"
         d="m 66.514719,66.514719 a 12,12 0 0 0 0,16.970562 12,12 0 0 0 16.970562,0 12,12 0 0 0 0,-16.970562 L 75,58.029437 Z"
         style="color:#000000;clip-rule:nonzero;display:inline;overflow:visible;visibility:visible;opacity:1;isolation:auto;mix-blend-mode:normal;color-interpolation:sRGB;color-interpolation-filters:linearRGB;solid-color:#000000;solid-opacity:1;fill:#f5f5f5;fill-opacity:1;fill-rule:nonzero;stroke:none;stroke-width:1;stroke-linecap:butt;stroke-linejoin:miter;stroke-miterlimit:4;stroke-dasharray:none;stroke-dashoffset:0;stroke-opacity:1;color-rendering:auto;image-rendering:auto;shape-rendering:auto;text-rendering:auto;enable-background:accumulate"
         inkscape:connector-curvature="0"
         inkscape:transform-center-y="-2.4852819" />
      <path
         style="fill:#000000;fill-opacity:0.09599998;stroke:none"
         d="m 66.514719,66.514719 a 12,12 0 0 0 0,16.970562 12,12 0 0 0 16.970562,0 12,12 0 0 0 0,-16.970562 L 75,58.029437 Z m 4.24264,4.24264 L 75,66.514719 l 4.242641,4.24264 a 6,6 0 0 1 0,8.485282 6,6 0 0 1 -8.485282,0 6,6 0 0 1 0,-8.485282 z"
         id="path4400"
         inkscape:connector-curvature="0" />
      <rect
         style="color:#000000;clip-rule:nonzero;display:inline;overflow:visible;visibility:visible;opacity:1;isolation:auto;mix-blend-mode:normal;color-interpolation:sRGB;color-interpolation-filters:linearRGB;solid-color:#000000;solid-opacity:1;fill:none;fill-opacity:1;fill-rule:nonzero;stroke:none;stroke-width:1;stroke-linecap:butt;stroke-linejoin:miter;stroke-miterlimit:4;stroke-dasharray:none;stroke-dashoffset:0;stroke-opacity:1;color-rendering:auto;image-rendering:auto;shape-rendering:auto;text-rendering:auto;enable-background:accumulate"
         id="rect4402"
         width="24"
         height="30"
         x="63"
         y="57" />
    </g>
    <g
       transform="rotate(-90,100,50)"
       id="slider-vert-scale-has-marks-above-dark"
       inkscape:transform-center-x="3"
       inkscape:label="#g4404">
      <path
         inkscape:transform-center-y="-2.4852819"
         inkscape:connector-curvature="0"
         id="path4406"
         d="m 16.514719,66.514719 a 12,12 0 0 0 0,16.970562 12,12 0 0 0 16.970562,0 12,12 0 0 0 0,-16.970562 L 25,58.029437 Z"
         style="fill:#ffffff;fill-opacity:1;stroke:none" />
      <rect
         y="57"
         x="13"
         height="30"
         width="24"
         id="rect4408"
         style="color:#000000;clip-rule:nonzero;display:inline;overflow:visible;visibility:visible;opacity:1;isolation:auto;mix-blend-mode:normal;color-interpolation:sRGB;color-interpolation-filters:linearRGB;solid-color:#000000;solid-opacity:1;fill:none;fill-opacity:1;fill-rule:nonzero;stroke:none;stroke-width:1;stroke-linecap:butt;stroke-linejoin:miter;stroke-miterlimit:4;stroke-dasharray:none;stroke-dashoffset:0;stroke-opacity:1;color-rendering:auto;image-rendering:auto;shape-rendering:auto;text-rendering:auto;enable-background:accumulate" />
    </g>
    <g
       transform="rotate(-90,150,50)"
       id="slider-vert-scale-has-marks-above-insensitive-dark"
       inkscape:transform-center-x="3"
       inkscape:label="#g4410">
      <path
         inkscape:transform-center-y="-2.4852819"
         inkscape:connector-curvature="0"
         style="color:#000000;clip-rule:nonzero;display:inline;overflow:visible;visibility:visible;opacity:1;isolation:auto;mix-blend-mode:normal;color-interpolation:sRGB;color-interpolation-filters:linearRGB;solid-color:#000000;solid-opacity:1;fill:#88cc00;fill-opacity:1;fill-rule:nonzero;stroke:none;stroke-width:1;stroke-linecap:butt;stroke-linejoin:miter;stroke-miterlimit:4;stroke-dasharray:none;stroke-dashoffset:0;stroke-opacity:1;color-rendering:auto;image-rendering:auto;shape-rendering:auto;text-rendering:auto;enable-background:accumulate"
         d="m 66.514719,66.514719 a 12,12 0 0 0 0,16.970562 12,12 0 0 0 16.970562,0 12,12 0 0 0 0,-16.970562 L 75,58.029437 Z"
         id="path4412" />
      <path
         style="color:#000000;clip-rule:nonzero;display:inline;overflow:visible;visibility:visible;opacity:1;isolation:auto;mix-blend-mode:normal;color-interpolation:sRGB;color-interpolation-filters:linearRGB;solid-color:#000000;solid-opacity:1;fill:#ffffff;fill-opacity:0.12000002;fill-rule:nonzero;stroke:none;stroke-width:1;stroke-linecap:butt;stroke-linejoin:miter;stroke-miterlimit:4;stroke-dasharray:none;stroke-dashoffset:0;stroke-opacity:1;color-rendering:auto;image-rendering:auto;shape-rendering:auto;text-rendering:auto;enable-background:accumulate"
         d="m 66.514719,66.514719 a 12,12 0 0 0 0,16.970562 12,12 0 0 0 16.970562,0 12,12 0 0 0 0,-16.970562 L 75,58.029437 Z m 4.24264,4.24264 L 75,66.514719 l 4.242641,4.24264 a 6,6 0 0 1 0,8.485282 6,6 0 0 1 -8.485282,0 6,6 0 0 1 0,-8.485282 z"
         id="path4414"
         inkscape:connector-curvature="0" />
      <rect
         y="57"
         x="63"
         height="30"
         width="24"
         id="rect4416"
         style="color:#000000;clip-rule:nonzero;display:inline;overflow:visible;visibility:visible;opacity:1;isolation:auto;mix-blend-mode:normal;color-interpolation:sRGB;color-interpolation-filters:linearRGB;solid-color:#000000;solid-opacity:1;fill:none;fill-opacity:1;fill-rule:nonzero;stroke:none;stroke-width:1;stroke-linecap:butt;stroke-linejoin:miter;stroke-miterlimit:4;stroke-dasharray:none;stroke-dashoffset:0;stroke-opacity:1;color-rendering:auto;image-rendering:auto;shape-rendering:auto;text-rendering:auto;enable-background:accumulate" />
    </g>
    <g
       id="slider-vert-scale-has-marks-below"
       transform="rotate(90,-25,125)"
       inkscape:transform-center-x="-3"
       inkscape:label="#g4418">
      <path
         style="fill:#88cc00;fill-opacity:1;stroke:none"
         d="m 16.514719,66.514719 a 12,12 0 0 0 0,16.970562 12,12 0 0 0 16.970562,0 12,12 0 0 0 0,-16.970562 L 25,58.029437 Z"
         id="path4420"
         inkscape:connector-curvature="0"
         inkscape:transform-center-y="-2.4852819" />
      <rect
         style="color:#000000;clip-rule:nonzero;display:inline;overflow:visible;visibility:visible;opacity:1;isolation:auto;mix-blend-mode:normal;color-interpolation:sRGB;color-interpolation-filters:linearRGB;solid-color:#000000;solid-opacity:1;fill:none;fill-opacity:1;fill-rule:nonzero;stroke:none;stroke-width:1;stroke-linecap:butt;stroke-linejoin:miter;stroke-miterlimit:4;stroke-dasharray:none;stroke-dashoffset:0;stroke-opacity:1;color-rendering:auto;image-rendering:auto;shape-rendering:auto;text-rendering:auto;enable-background:accumulate"
         id="rect4422"
         width="24"
         height="30"
         x="13"
         y="57" />
    </g>
    <g
       id="slider-vert-scale-has-marks-below-insensitive"
       transform="rotate(90,25,125)"
       inkscape:transform-center-x="-3"
       inkscape:label="#g4424">
      <path
         id="path4426"
         d="m 66.514719,66.514719 a 12,12 0 0 0 0,16.970562 12,12 0 0 0 16.970562,0 12,12 0 0 0 0,-16.970562 L 75,58.029437 Z"
         style="color:#000000;clip-rule:nonzero;display:inline;overflow:visible;visibility:visible;opacity:1;isolation:auto;mix-blend-mode:normal;color-interpolation:sRGB;color-interpolation-filters:linearRGB;solid-color:#000000;solid-opacity:1;fill:#f5f5f5;fill-opacity:1;fill-rule:nonzero;stroke:none;stroke-width:1;stroke-linecap:butt;stroke-linejoin:miter;stroke-miterlimit:4;stroke-dasharray:none;stroke-dashoffset:0;stroke-opacity:1;color-rendering:auto;image-rendering:auto;shape-rendering:auto;text-rendering:auto;enable-background:accumulate"
         inkscape:connector-curvature="0"
         inkscape:transform-center-y="-2.4852819" />
      <path
         style="fill:#000000;fill-opacity:0.09599998;stroke:none"
         d="m 66.514719,66.514719 a 12,12 0 0 0 0,16.970562 12,12 0 0 0 16.970562,0 12,12 0 0 0 0,-16.970562 L 75,58.029437 Z m 4.24264,4.24264 L 75,66.514719 l 4.242641,4.24264 a 6,6 0 0 1 0,8.485282 6,6 0 0 1 -8.485282,0 6,6 0 0 1 0,-8.485282 z"
         id="path4428"
         inkscape:connector-curvature="0" />
      <rect
         style="color:#000000;clip-rule:nonzero;display:inline;overflow:visible;visibility:visible;opacity:1;isolation:auto;mix-blend-mode:normal;color-interpolation:sRGB;color-interpolation-filters:linearRGB;solid-color:#000000;solid-opacity:1;fill:none;fill-opacity:1;fill-rule:nonzero;stroke:none;stroke-width:1;stroke-linecap:butt;stroke-linejoin:miter;stroke-miterlimit:4;stroke-dasharray:none;stroke-dashoffset:0;stroke-opacity:1;color-rendering:auto;image-rendering:auto;shape-rendering:auto;text-rendering:auto;enable-background:accumulate"
         id="rect4430"
         width="24"
         height="30"
         x="63"
         y="57" />
    </g>
    <g
       transform="rotate(90,25,175)"
       id="slider-vert-scale-has-marks-below-dark"
       inkscape:transform-center-x="-3"
       inkscape:label="#g4432">
      <path
         inkscape:transform-center-y="-2.4852819"
         inkscape:connector-curvature="0"
         id="path4434"
         d="m 16.514719,66.514719 a 12,12 0 0 0 0,16.970562 12,12 0 0 0 16.970562,0 12,12 0 0 0 0,-16.970562 L 25,58.029437 Z"
         style="fill:#ffffff;fill-opacity:1;stroke:none" />
      <rect
         y="57"
         x="13"
         height="30"
         width="24"
         id="rect4436"
         style="color:#000000;clip-rule:nonzero;display:inline;overflow:visible;visibility:visible;opacity:1;isolation:auto;mix-blend-mode:normal;color-interpolation:sRGB;color-interpolation-filters:linearRGB;solid-color:#000000;solid-opacity:1;fill:none;fill-opacity:1;fill-rule:nonzero;stroke:none;stroke-width:1;stroke-linecap:butt;stroke-linejoin:miter;stroke-miterlimit:4;stroke-dasharray:none;stroke-dashoffset:0;stroke-opacity:1;color-rendering:auto;image-rendering:auto;shape-rendering:auto;text-rendering:auto;enable-background:accumulate" />
    </g>
    <g
       transform="rotate(90,75,175)"
       id="slider-vert-scale-has-marks-below-insensitive-dark"
       inkscape:transform-center-x="-3"
       inkscape:label="#g4438">
      <path
         inkscape:transform-center-y="-2.4852819"
         inkscape:connector-curvature="0"
         style="color:#000000;clip-rule:nonzero;display:inline;overflow:visible;visibility:visible;opacity:1;isolation:auto;mix-blend-mode:normal;color-interpolation:sRGB;color-interpolation-filters:linearRGB;solid-color:#000000;solid-opacity:1;fill:#88cc00;fill-opacity:1;fill-rule:nonzero;stroke:none;stroke-width:1;stroke-linecap:butt;stroke-linejoin:miter;stroke-miterlimit:4;stroke-dasharray:none;stroke-dashoffset:0;stroke-opacity:1;color-rendering:auto;image-rendering:auto;shape-rendering:auto;text-rendering:auto;enable-background:accumulate"
         d="m 66.514719,66.514719 a 12,12 0 0 0 0,16.970562 12,12 0 0 0 16.970562,0 12,12 0 0 0 0,-16.970562 L 75,58.029437 Z"
         id="path4440" />
      <path
         style="color:#000000;clip-rule:nonzero;display:inline;overflow:visible;visibility:visible;opacity:1;isolation:auto;mix-blend-mode:normal;color-interpolation:sRGB;color-interpolation-filters:linearRGB;solid-color:#000000;solid-opacity:1;fill:#ffffff;fill-opacity:0.12000002;fill-rule:nonzero;stroke:none;stroke-width:1;stroke-linecap:butt;stroke-linejoin:miter;stroke-miterlimit:4;stroke-dasharray:none;stroke-dashoffset:0;stroke-opacity:1;color-rendering:auto;image-rendering:auto;shape-rendering:auto;text-rendering:auto;enable-background:accumulate"
         d="m 66.514719,66.514719 a 12,12 0 0 0 0,16.970562 12,12 0 0 0 16.970562,0 12,12 0 0 0 0,-16.970562 L 75,58.029437 Z m 4.24264,4.24264 L 75,66.514719 l 4.242641,4.24264 a 6,6 0 0 1 0,8.485282 6,6 0 0 1 -8.485282,0 6,6 0 0 1 0,-8.485282 z"
         id="path4442"
         inkscape:connector-curvature="0" />
      <rect
         y="57"
         x="63"
         height="30"
         width="24"
         id="rect4444"
         style="color:#000000;clip-rule:nonzero;display:inline;overflow:visible;visibility:visible;opacity:1;isolation:auto;mix-blend-mode:normal;color-interpolation:sRGB;color-interpolation-filters:linearRGB;solid-color:#000000;solid-opacity:1;fill:none;fill-opacity:1;fill-rule:nonzero;stroke:none;stroke-width:1;stroke-linecap:butt;stroke-linejoin:miter;stroke-miterlimit:4;stroke-dasharray:none;stroke-dashoffset:0;stroke-opacity:1;color-rendering:auto;image-rendering:auto;shape-rendering:auto;text-rendering:auto;enable-background:accumulate" />
    </g>
    <g
       id="checkbox-selectionmode"
       inkscape:label="#g4447">
      <path
         sodipodi:nodetypes="sccccss"
         inkscape:connector-curvature="0"
         id="rect4393"
         transform="translate(0,-50)"
         d="m 7,255 c -1.108,0 -2,0.892 -2,2 0,13.55272 0,26.10215 0,38 13.832775,0 28.119439,0 40,0 0,-13.31618 0,-24.4159 0,-38 0,-1.108 -0.892,-2 -2,-2 z"
         style="color:#000000;clip-rule:nonzero;display:inline;overflow:visible;visibility:visible;opacity:1;isolation:auto;mix-blend-mode:normal;color-interpolation:sRGB;color-interpolation-filters:linearRGB;solid-color:#000000;solid-opacity:1;fill:#f5f5f5;fill-opacity:0;fill-rule:nonzero;stroke:none;stroke-width:0.5;stroke-linecap:butt;stroke-linejoin:miter;stroke-miterlimit:4;stroke-dasharray:none;stroke-dashoffset:0;stroke-opacity:1;color-rendering:auto;image-rendering:auto;shape-rendering:auto;text-rendering:auto;enable-background:accumulate" />
      <path
         id="rect4506"
         d="m 11,207 c -2.216,0 -4,1.784 -4,4 v 28 c 0,2.216 1.784,4 4,4 h 28 c 2.216,0 4,-1.784 4,-4 v -28 c 0,-2.216 -1.784,-4 -4,-4 z m 0,4 h 28 v 28 H 11 Z"
         style="color:#000000;clip-rule:nonzero;display:inline;overflow:visible;visibility:visible;opacity:1;isolation:auto;mix-blend-mode:normal;color-interpolation:sRGB;color-interpolation-filters:linearRGB;solid-color:#000000;solid-opacity:1;fill:#000000;fill-opacity:0.6;fill-rule:nonzero;stroke:none;stroke-width:1;stroke-linecap:butt;stroke-linejoin:miter;stroke-miterlimit:4;stroke-dasharray:none;stroke-dashoffset:0;stroke-opacity:1;color-rendering:auto;image-rendering:auto;shape-rendering:auto;text-rendering:auto;enable-background:accumulate"
         inkscape:connector-curvature="0" />
    </g>
    <g
       id="checkbox-checked-selectionmode"
       inkscape:label="#g4451">
      <path
         style="color:#000000;clip-rule:nonzero;display:inline;overflow:visible;visibility:visible;opacity:1;isolation:auto;mix-blend-mode:normal;color-interpolation:sRGB;color-interpolation-filters:linearRGB;solid-color:#000000;solid-opacity:1;fill:#f5f5f5;fill-opacity:0;fill-rule:nonzero;stroke:none;stroke-width:0.5;stroke-linecap:butt;stroke-linejoin:miter;stroke-miterlimit:4;stroke-dasharray:none;stroke-dashoffset:0;stroke-opacity:1;color-rendering:auto;image-rendering:auto;shape-rendering:auto;text-rendering:auto;enable-background:accumulate"
         d="m 57,205 c -1.108,0 -2,0.892 -2,2 0,13.55272 0,26.10215 0,38 13.832775,0 28.119439,0 40,0 0,-13.31618 0,-24.4159 0,-38 0,-1.108 -0.892,-2 -2,-2 z"
         id="path4410"
         inkscape:connector-curvature="0"
         sodipodi:nodetypes="sccccss" />
      <path
         id="rect4508"
         d="m 61,207 c -2.216,0 -4,1.784 -4,4 v 28 c 0,2.216 1.784,4 4,4 h 28 c 2.216,0 4,-1.784 4,-4 v -28 c 0,-2.216 -1.784,-4 -4,-4 z M 86.171876,214.17188 89,217 71,235 61,225 63.828124,222.17188 71,229.34376 Z"
         style="color:#000000;clip-rule:nonzero;display:inline;overflow:visible;visibility:visible;opacity:1;isolation:auto;mix-blend-mode:normal;color-interpolation:sRGB;color-interpolation-filters:linearRGB;solid-color:#000000;solid-opacity:1;fill:#88cc00;fill-opacity:0.6;fill-rule:nonzero;stroke:none;stroke-width:1;stroke-linecap:butt;stroke-linejoin:miter;stroke-miterlimit:4;stroke-dasharray:none;stroke-dashoffset:0;stroke-opacity:1;color-rendering:auto;image-rendering:auto;shape-rendering:auto;text-rendering:auto;enable-background:accumulate"
         inkscape:connector-curvature="0" />
    </g>
    <g
       id="checkbox-selectionmode-dark"
       inkscape:label="#g4455">
      <path
         style="color:#000000;clip-rule:nonzero;display:inline;overflow:visible;visibility:visible;opacity:1;isolation:auto;mix-blend-mode:normal;color-interpolation:sRGB;color-interpolation-filters:linearRGB;solid-color:#000000;solid-opacity:1;fill:#555555;fill-opacity:0;fill-rule:nonzero;stroke:none;stroke-width:0.5;stroke-linecap:butt;stroke-linejoin:miter;stroke-miterlimit:4;stroke-dasharray:none;stroke-dashoffset:0;stroke-opacity:1;color-rendering:auto;image-rendering:auto;shape-rendering:auto;text-rendering:auto;enable-background:accumulate"
         d="m 107,205 c -1.108,0 -2,0.892 -2,2 0,13.55272 0,26.10215 0,38 13.83277,0 28.11944,0 40,0 0,-13.31618 0,-24.4159 0,-38 0,-1.108 -0.892,-2 -2,-2 z"
         id="path4413"
         inkscape:connector-curvature="0"
         sodipodi:nodetypes="sccccss" />
      <path
         inkscape:connector-curvature="0"
         style="color:#000000;clip-rule:nonzero;display:inline;overflow:visible;visibility:visible;opacity:1;isolation:auto;mix-blend-mode:normal;color-interpolation:sRGB;color-interpolation-filters:linearRGB;solid-color:#000000;solid-opacity:1;fill:#ffffff;fill-opacity:0.9414634;fill-rule:nonzero;stroke:none;stroke-width:1;stroke-linecap:butt;stroke-linejoin:miter;stroke-miterlimit:4;stroke-dasharray:none;stroke-dashoffset:0;stroke-opacity:1;color-rendering:auto;image-rendering:auto;shape-rendering:auto;text-rendering:auto;enable-background:accumulate"
         d="m 111,207 c -2.216,0 -4,1.784 -4,4 v 28 c 0,2.216 1.784,4 4,4 h 28 c 2.216,0 4,-1.784 4,-4 v -28 c 0,-2.216 -1.784,-4 -4,-4 z m 0,4 h 28 v 28 h -28 z"
         id="path4564" />
    </g>
    <g
       id="checkbox-checked-selectionmode-dark"
       inkscape:label="#g4459">
      <path
         sodipodi:nodetypes="sccccss"
         inkscape:connector-curvature="0"
         id="path4429"
         d="m 157,205 c -1.108,0 -2,0.892 -2,2 0,13.55272 0,26.10215 0,38 13.83277,0 28.11944,0 40,0 0,-13.31618 0,-24.4159 0,-38 0,-1.108 -0.892,-2 -2,-2 z"
         style="color:#000000;clip-rule:nonzero;display:inline;overflow:visible;visibility:visible;opacity:1;isolation:auto;mix-blend-mode:normal;color-interpolation:sRGB;color-interpolation-filters:linearRGB;solid-color:#000000;solid-opacity:1;fill:#555555;fill-opacity:0;fill-rule:nonzero;stroke:none;stroke-width:0.5;stroke-linecap:butt;stroke-linejoin:miter;stroke-miterlimit:4;stroke-dasharray:none;stroke-dashoffset:0;stroke-opacity:1;color-rendering:auto;image-rendering:auto;shape-rendering:auto;text-rendering:auto;enable-background:accumulate" />
      <path
         inkscape:connector-curvature="0"
         style="color:#000000;clip-rule:nonzero;display:inline;overflow:visible;visibility:visible;opacity:1;isolation:auto;mix-blend-mode:normal;color-interpolation:sRGB;color-interpolation-filters:linearRGB;solid-color:#000000;solid-opacity:1;fill:#ffffff;fill-opacity:0.9414634;fill-rule:nonzero;stroke:none;stroke-width:1;stroke-linecap:butt;stroke-linejoin:miter;stroke-miterlimit:4;stroke-dasharray:none;stroke-dashoffset:0;stroke-opacity:1;color-rendering:auto;image-rendering:auto;shape-rendering:auto;text-rendering:auto;enable-background:accumulate"
         d="m 161,207 c -2.216,0 -4,1.784 -4,4 v 28 c 0,2.216 1.784,4 4,4 h 28 c 2.216,0 4,-1.784 4,-4 v -28 c 0,-2.216 -1.784,-4 -4,-4 z m 25.17188,7.17188 L 189,217 l -18,18 -10,-10 2.82812,-2.82812 7.17188,7.17188 z"
         id="path4570" />
    </g>
    <g
       id="checkbox-hover-selectionmode"
       inkscape:label="#g4471">
      <path
         style="color:#000000;clip-rule:nonzero;display:inline;overflow:visible;visibility:visible;opacity:1;isolation:auto;mix-blend-mode:normal;color-interpolation:sRGB;color-interpolation-filters:linearRGB;solid-color:#000000;solid-opacity:1;fill:#f5f5f5;fill-opacity:0;fill-rule:nonzero;stroke:none;stroke-width:0.5;stroke-linecap:butt;stroke-linejoin:miter;stroke-miterlimit:4;stroke-dasharray:none;stroke-dashoffset:0;stroke-opacity:1;color-rendering:auto;image-rendering:auto;shape-rendering:auto;text-rendering:auto;enable-background:accumulate"
         d="m 7,255 c -1.108,0 -2,0.892 -2,2 0,13.55272 0,26.10215 0,38 13.832775,0 28.119439,0 40,0 0,-13.31618 0,-24.4159 0,-38 0,-1.108 -0.892,-2 -2,-2 z"
         id="path4431"
         inkscape:connector-curvature="0"
         sodipodi:nodetypes="sccccss" />
      <path
         sodipodi:nodetypes="sccccss"
         inkscape:connector-curvature="0"
         id="path4463"
         d="m 7,255 c -1.108,0 -2,0.892 -2,2 0,13.55272 0,26.10215 0,38 13.832775,0 28.119439,0 40,0 0,-13.31618 0,-24.4159 0,-38 0,-1.108 -0.892,-2 -2,-2 z"
         style="color:#000000;clip-rule:nonzero;display:inline;overflow:visible;visibility:visible;opacity:1;isolation:auto;mix-blend-mode:normal;color-interpolation:sRGB;color-interpolation-filters:linearRGB;solid-color:#000000;solid-opacity:1;fill:#000000;fill-opacity:0;fill-rule:nonzero;stroke:none;stroke-width:0.5;stroke-linecap:butt;stroke-linejoin:miter;stroke-miterlimit:4;stroke-dasharray:none;stroke-dashoffset:0;stroke-opacity:1;color-rendering:auto;image-rendering:auto;shape-rendering:auto;text-rendering:auto;enable-background:accumulate" />
      <path
         inkscape:connector-curvature="0"
         style="color:#000000;clip-rule:nonzero;display:inline;overflow:visible;visibility:visible;opacity:1;isolation:auto;mix-blend-mode:normal;color-interpolation:sRGB;color-interpolation-filters:linearRGB;solid-color:#000000;solid-opacity:1;fill:#000000;fill-opacity:0.8;fill-rule:nonzero;stroke:none;stroke-width:1;stroke-linecap:butt;stroke-linejoin:miter;stroke-miterlimit:4;stroke-dasharray:none;stroke-dashoffset:0;stroke-opacity:1;color-rendering:auto;image-rendering:auto;shape-rendering:auto;text-rendering:auto;enable-background:accumulate"
         d="m 11,257 c -2.216,0 -4,1.784 -4,4 v 28 c 0,2.216 1.784,4 4,4 h 28 c 2.216,0 4,-1.784 4,-4 v -28 c 0,-2.216 -1.784,-4 -4,-4 z m 0,4 h 28 v 28 H 11 Z"
         id="path4433" />
    </g>
    <g
       id="checkbox-checked-hover-selectionmode"
       inkscape:label="#g4476">
      <path
         sodipodi:nodetypes="sccccss"
         inkscape:connector-curvature="0"
         id="path4435"
         d="m 57,255 c -1.108,0 -2,0.892 -2,2 0,13.55272 0,26.10215 0,38 13.832775,0 28.119439,0 40,0 0,-13.31618 0,-24.4159 0,-38 0,-1.108 -0.892,-2 -2,-2 z"
         style="color:#000000;clip-rule:nonzero;display:inline;overflow:visible;visibility:visible;opacity:1;isolation:auto;mix-blend-mode:normal;color-interpolation:sRGB;color-interpolation-filters:linearRGB;solid-color:#000000;solid-opacity:1;fill:#f5f5f5;fill-opacity:0;fill-rule:nonzero;stroke:none;stroke-width:0.5;stroke-linecap:butt;stroke-linejoin:miter;stroke-miterlimit:4;stroke-dasharray:none;stroke-dashoffset:0;stroke-opacity:1;color-rendering:auto;image-rendering:auto;shape-rendering:auto;text-rendering:auto;enable-background:accumulate" />
      <path
         style="color:#000000;clip-rule:nonzero;display:inline;overflow:visible;visibility:visible;opacity:1;isolation:auto;mix-blend-mode:normal;color-interpolation:sRGB;color-interpolation-filters:linearRGB;solid-color:#000000;solid-opacity:1;fill:#000000;fill-opacity:0;fill-rule:nonzero;stroke:none;stroke-width:0.5;stroke-linecap:butt;stroke-linejoin:miter;stroke-miterlimit:4;stroke-dasharray:none;stroke-dashoffset:0;stroke-opacity:1;color-rendering:auto;image-rendering:auto;shape-rendering:auto;text-rendering:auto;enable-background:accumulate"
         d="m 57,255 c -1.108,0 -2,0.892 -2,2 0,13.55272 0,26.10215 0,38 13.832775,0 28.119439,0 40,0 0,-13.31618 0,-24.4159 0,-38 0,-1.108 -0.892,-2 -2,-2 z"
         id="path4467"
         inkscape:connector-curvature="0"
         sodipodi:nodetypes="sccccss" />
      <path
         inkscape:connector-curvature="0"
         style="color:#000000;clip-rule:nonzero;display:inline;overflow:visible;visibility:visible;opacity:1;isolation:auto;mix-blend-mode:normal;color-interpolation:sRGB;color-interpolation-filters:linearRGB;solid-color:#000000;solid-opacity:1;fill:#88cc00;fill-opacity:1;fill-rule:nonzero;stroke:none;stroke-width:1;stroke-linecap:butt;stroke-linejoin:miter;stroke-miterlimit:4;stroke-dasharray:none;stroke-dashoffset:0;stroke-opacity:1;color-rendering:auto;image-rendering:auto;shape-rendering:auto;text-rendering:auto;enable-background:accumulate"
         d="m 61,257 c -2.216,0 -4,1.784 -4,4 v 28 c 0,2.216 1.784,4 4,4 h 28 c 2.216,0 4,-1.784 4,-4 v -28 c 0,-2.216 -1.784,-4 -4,-4 z M 86.171876,264.17188 89,267 71,285 61,275 63.828124,272.17188 71,279.34376 Z"
         id="path4437" />
    </g>
    <g
       id="checkbox-hover-selectionmode-dark"
       inkscape:label="#g4481">
      <path
         sodipodi:nodetypes="sccccss"
         inkscape:connector-curvature="0"
         id="path4439"
         d="m 107,255 c -1.108,0 -2,0.892 -2,2 0,13.55272 0,26.10215 0,38 13.83277,0 28.11944,0 40,0 0,-13.31618 0,-24.4159 0,-38 0,-1.108 -0.892,-2 -2,-2 z"
         style="color:#000000;clip-rule:nonzero;display:inline;overflow:visible;visibility:visible;opacity:1;isolation:auto;mix-blend-mode:normal;color-interpolation:sRGB;color-interpolation-filters:linearRGB;solid-color:#000000;solid-opacity:1;fill:#455a64;fill-opacity:0;fill-rule:nonzero;stroke:none;stroke-width:0.5;stroke-linecap:butt;stroke-linejoin:miter;stroke-miterlimit:4;stroke-dasharray:none;stroke-dashoffset:0;stroke-opacity:1;color-rendering:auto;image-rendering:auto;shape-rendering:auto;text-rendering:auto;enable-background:accumulate" />
      <path
         style="color:#000000;clip-rule:nonzero;display:inline;overflow:visible;visibility:visible;opacity:1;isolation:auto;mix-blend-mode:normal;color-interpolation:sRGB;color-interpolation-filters:linearRGB;solid-color:#000000;solid-opacity:1;fill:#555555;fill-opacity:0;fill-rule:nonzero;stroke:none;stroke-width:0.5;stroke-linecap:butt;stroke-linejoin:miter;stroke-miterlimit:4;stroke-dasharray:none;stroke-dashoffset:0;stroke-opacity:1;color-rendering:auto;image-rendering:auto;shape-rendering:auto;text-rendering:auto;enable-background:accumulate"
         d="m 107,255 c -1.108,0 -2,0.892 -2,2 0,13.55272 0,26.10215 0,38 13.83277,0 28.11944,0 40,0 0,-13.31618 0,-24.4159 0,-38 0,-1.108 -0.892,-2 -2,-2 z"
         id="path4465"
         inkscape:connector-curvature="0"
         sodipodi:nodetypes="sccccss" />
      <path
         id="path4441"
         d="m 111,257 c -2.216,0 -4,1.784 -4,4 v 28 c 0,2.216 1.784,4 4,4 h 28 c 2.216,0 4,-1.784 4,-4 v -28 c 0,-2.216 -1.784,-4 -4,-4 z m 0,4 h 28 v 28 h -28 z"
         style="color:#000000;clip-rule:nonzero;display:inline;overflow:visible;visibility:visible;opacity:1;isolation:auto;mix-blend-mode:normal;color-interpolation:sRGB;color-interpolation-filters:linearRGB;solid-color:#000000;solid-opacity:1;fill:#ffffff;fill-opacity:1;fill-rule:nonzero;stroke:none;stroke-width:1;stroke-linecap:butt;stroke-linejoin:miter;stroke-miterlimit:4;stroke-dasharray:none;stroke-dashoffset:0;stroke-opacity:1;color-rendering:auto;image-rendering:auto;shape-rendering:auto;text-rendering:auto;enable-background:accumulate"
         inkscape:connector-curvature="0" />
    </g>
    <g
       id="checkbox-checked-hover-selectionmode-dark"
       inkscape:label="#g4486">
      <path
         style="color:#000000;clip-rule:nonzero;display:inline;overflow:visible;visibility:visible;opacity:1;isolation:auto;mix-blend-mode:normal;color-interpolation:sRGB;color-interpolation-filters:linearRGB;solid-color:#000000;solid-opacity:1;fill:#455a64;fill-opacity:0;fill-rule:nonzero;stroke:none;stroke-width:0.5;stroke-linecap:butt;stroke-linejoin:miter;stroke-miterlimit:4;stroke-dasharray:none;stroke-dashoffset:0;stroke-opacity:1;color-rendering:auto;image-rendering:auto;shape-rendering:auto;text-rendering:auto;enable-background:accumulate"
         d="m 157,255 c -1.108,0 -2,0.892 -2,2 0,13.55272 0,26.10215 0,38 13.83277,0 28.11944,0 40,0 0,-13.31618 0,-24.4159 0,-38 0,-1.108 -0.892,-2 -2,-2 z"
         id="path4443"
         inkscape:connector-curvature="0"
         sodipodi:nodetypes="sccccss" />
      <path
         sodipodi:nodetypes="sccccss"
         inkscape:connector-curvature="0"
         id="path4469"
         d="m 157,255 c -1.108,0 -2,0.892 -2,2 0,13.55272 0,26.10215 0,38 13.83277,0 28.11944,0 40,0 0,-13.31618 0,-24.4159 0,-38 0,-1.108 -0.892,-2 -2,-2 z"
         style="color:#000000;clip-rule:nonzero;display:inline;overflow:visible;visibility:visible;opacity:1;isolation:auto;mix-blend-mode:normal;color-interpolation:sRGB;color-interpolation-filters:linearRGB;solid-color:#000000;solid-opacity:1;fill:#555555;fill-opacity:0;fill-rule:nonzero;stroke:none;stroke-width:0.5;stroke-linecap:butt;stroke-linejoin:miter;stroke-miterlimit:4;stroke-dasharray:none;stroke-dashoffset:0;stroke-opacity:1;color-rendering:auto;image-rendering:auto;shape-rendering:auto;text-rendering:auto;enable-background:accumulate" />
      <path
         id="path4445"
         d="m 161,257 c -2.216,0 -4,1.784 -4,4 v 28 c 0,2.216 1.784,4 4,4 h 28 c 2.216,0 4,-1.784 4,-4 v -28 c 0,-2.216 -1.784,-4 -4,-4 z m 25.17188,7.17188 L 189,267 l -18,18 -10,-10 2.82812,-2.82812 7.17188,7.17188 z"
         style="color:#000000;clip-rule:nonzero;display:inline;overflow:visible;visibility:visible;opacity:1;isolation:auto;mix-blend-mode:normal;color-interpolation:sRGB;color-interpolation-filters:linearRGB;solid-color:#000000;solid-opacity:1;fill:#ffffff;fill-opacity:1;fill-rule:nonzero;stroke:none;stroke-width:1;stroke-linecap:butt;stroke-linejoin:miter;stroke-miterlimit:4;stroke-dasharray:none;stroke-dashoffset:0;stroke-opacity:1;color-rendering:auto;image-rendering:auto;shape-rendering:auto;text-rendering:auto;enable-background:accumulate"
         inkscape:connector-curvature="0" />
    </g>
    <g
       transform="translate(98.999996,-781.36215)"
       id="titlebutton-close"
       inkscape:label="#g6153">
      <rect
         style="opacity:1;fill:#3399ff;fill-opacity:0;stroke:none;stroke-width:1;stroke-miterlimit:4;stroke-dasharray:none;stroke-dashoffset:0;stroke-opacity:1"
         id="rect7128"
         width="20.000006"
         height="20.000006"
         x="192.00002"
         y="760.36218"
         ry="1.6668508" />
      <path
         style="fill:#424242;fill-opacity:1;stroke:none"
         d="m 198,766.36206 v 1.33334 l 2.66667,2.66667 L 198,773.02874 v 1.33333 h 1.33333 L 202,771.6954 l 2.66667,2.66667 H 206 v -1.33333 L 203.33333,770.36207 206,767.6954 v -1.33334 h -1.33333 L 202,769.02874 l -2.66667,-2.66668 z"
         id="path4359"
         inkscape:connector-curvature="0" />
    </g>
    <g
       transform="translate(98.999996,-781.36215)"
       id="titlebutton-minimize"
       inkscape:label="#g6143">
      <rect
         style="opacity:1;fill:#3399ff;fill-opacity:0;stroke:none;stroke-width:1;stroke-miterlimit:4;stroke-dasharray:none;stroke-dashoffset:0;stroke-opacity:1"
         id="rect7130"
         width="20.000006"
         height="20.000006"
         x="144.00002"
         y="760.36218"
         ry="1.6668508" />
      <rect
         y="772.36218"
         x="150.00002"
         height="2.0000005"
         width="8.0000019"
         id="rect4459"
         style="opacity:1;fill:#424242;fill-opacity:1;stroke:none;stroke-width:1;stroke-miterlimit:4;stroke-dasharray:none;stroke-dashoffset:0;stroke-opacity:1" />
    </g>
    <g
       transform="translate(98.999996,-781.36215)"
       id="titlebutton-maximize"
       inkscape:label="#g6148">
      <rect
         ry="1.6668508"
         y="760.36218"
         x="168.00002"
         height="20.000006"
         width="20.000006"
         id="rect7132"
         style="opacity:1;fill:#3399ff;fill-opacity:0;stroke:none;stroke-width:1;stroke-miterlimit:4;stroke-dasharray:none;stroke-dashoffset:0;stroke-opacity:1" />
      <path
         inkscape:connector-curvature="0"
         id="path5239"
         d="m 175.99999,766.36206 2,2.00001 h 2 v 2 l 2.00001,2 v -6.00001 z m -2,2.00001 v 6 h 6 l -2,-2 h -2 v -2 z"
         style="fill:#424242;fill-opacity:1;fill-rule:evenodd;stroke:none;stroke-width:1px;stroke-linecap:butt;stroke-linejoin:miter;stroke-opacity:1" />
    </g>
    <g
       transform="translate(98.999996,-781.36215)"
       id="titlebutton-close-hover"
       inkscape:label="#g6173">
      <rect
         ry="1.6668508"
         y="792.36218"
         x="192.00002"
         height="20.000006"
         width="20.000006"
         id="rect5292"
         style="opacity:1;fill:#ff7373;fill-opacity:1;stroke:none;stroke-width:1;stroke-miterlimit:4;stroke-dasharray:none;stroke-dashoffset:0;stroke-opacity:1" />
      <path
         inkscape:connector-curvature="0"
         id="path6145"
         d="m 198,798.36208 v 1.33333 l 2.66667,2.66667 L 198,805.02875 v 1.33333 h 1.33333 L 202,803.69541 l 2.66667,2.66667 H 206 v -1.33333 L 203.33333,802.36208 206,799.69541 v -1.33333 h -1.33333 L 202,801.02875 l -2.66667,-2.66667 z"
         style="fill:#ffffff;fill-opacity:1;stroke:none" />
    </g>
    <g
       transform="translate(98.999996,-781.36215)"
       id="titlebutton-minimize-hover"
       inkscape:label="#g6181">
      <rect
         ry="1.6668508"
         y="792.36218"
         x="144.00002"
         height="20.000006"
         width="20.000006"
         id="rect6163"
         style="opacity:1;fill:#88cc00;fill-opacity:1;stroke:none;stroke-width:1;stroke-miterlimit:4;stroke-dasharray:none;stroke-dashoffset:0;stroke-opacity:1" />
      <rect
         style="opacity:1;fill:#ffffff;fill-opacity:1;stroke:none;stroke-width:1;stroke-miterlimit:4;stroke-dasharray:none;stroke-dashoffset:0;stroke-opacity:1"
         id="rect6149"
         width="8.0000019"
         height="2.0000005"
         x="150.00002"
         y="804.36218" />
    </g>
    <g
       transform="translate(98.999996,-781.36215)"
       id="titlebutton-maximize-hover"
       inkscape:label="#g6177">
      <rect
         style="opacity:1;fill:#88cc00;fill-opacity:1;stroke:none;stroke-width:1;stroke-miterlimit:4;stroke-dasharray:none;stroke-dashoffset:0;stroke-opacity:1"
         id="rect6161"
         width="20.000006"
         height="20.000006"
         x="168.00002"
         y="792.36218"
         ry="1.6668508" />
      <path
         style="fill:#ffffff;fill-opacity:1;fill-rule:evenodd;stroke:none;stroke-width:1px;stroke-linecap:butt;stroke-linejoin:miter;stroke-opacity:1"
         d="m 175.99999,798.36208 2,2 h 2 v 2 l 2.00001,2 v -6 z m -2,2 v 6 h 6 l -2,-2 h -2 v -2 z"
         id="path6153"
         inkscape:connector-curvature="0" />
    </g>
    <g
       transform="translate(98.999996,-781.36215)"
       id="titlebutton-close-backdrop"
       inkscape:label="#g6168">
      <path
         inkscape:connector-curvature="0"
         id="path6167"
         d="m 278.00003,766.36206 v 1.33334 l 2.66667,2.66667 -2.66667,2.66667 v 1.33333 h 1.33333 l 2.66667,-2.66667 2.66667,2.66667 h 1.33333 v -1.33333 l -2.66667,-2.66667 2.66667,-2.66667 v -1.33334 h -1.33333 l -2.66667,2.66668 -2.66667,-2.66668 z"
         style="opacity:0.5;fill:#000000;fill-opacity:1;stroke:none" />
      <rect
         ry="1.6668508"
         y="760.36218"
         x="272.00006"
         height="20.000006"
         width="20.000006"
         id="rect7134"
         style="opacity:1;fill:#3399ff;fill-opacity:0;stroke:none;stroke-width:1;stroke-miterlimit:4;stroke-dasharray:none;stroke-dashoffset:0;stroke-opacity:1" />
    </g>
    <g
       transform="translate(98.999996,-781.36215)"
       id="titlebutton-minimize-backdrop"
       inkscape:label="#g6158">
      <rect
         style="opacity:0.5;fill:#000000;fill-opacity:1;stroke:none;stroke-width:1;stroke-miterlimit:4;stroke-dasharray:none;stroke-dashoffset:0;stroke-opacity:1"
         id="rect6171-3"
         width="8.0000019"
         height="2.0000005"
         x="230.00002"
         y="772.36218" />
      <rect
         ry="1.6668508"
         y="760.36218"
         x="224.00002"
         height="20.000006"
         width="20.000006"
         id="rect7136"
         style="opacity:1;fill:#3399ff;fill-opacity:0;stroke:none;stroke-width:1;stroke-miterlimit:4;stroke-dasharray:none;stroke-dashoffset:0;stroke-opacity:1" />
    </g>
    <g
       transform="translate(98.999996,-781.36215)"
       id="titlebutton-maximize-backdrop"
       inkscape:label="#g6163">
      <path
         style="opacity:0.5;fill:#000000;fill-opacity:1;fill-rule:evenodd;stroke:none;stroke-width:1px;stroke-linecap:butt;stroke-linejoin:miter;stroke-opacity:1"
         d="m 256.00001,766.36206 2,2.00001 h 2 v 2 l 2,2 v -6.00001 z m -2,2.00001 v 6 h 6 l -2,-2 h -2 v -2 z"
         id="path6175"
         inkscape:connector-curvature="0" />
      <rect
         style="opacity:1;fill:#3399ff;fill-opacity:0;stroke:none;stroke-width:1;stroke-miterlimit:4;stroke-dasharray:none;stroke-dashoffset:0;stroke-opacity:1"
         id="rect7138"
         width="20.000006"
         height="20.000006"
         x="248.00009"
         y="760.36218"
         ry="1.6668508" />
    </g>
    <rect
       style="opacity:1;fill:#444444;fill-opacity:1;stroke:none;stroke-width:0.60092503;stroke-miterlimit:4;stroke-dasharray:none;stroke-dashoffset:0;stroke-opacity:1"
       id="rect5314"
       width="250"
       height="130"
       x="220"
       y="50.999973"
       ry="0" />
    <g
       transform="translate(-202.00003,-677.36213)"
       id="titlebutton-close-dark"
       inkscape:label="#g5370">
      <rect
         ry="1.6668506"
         y="760.36212"
         x="492.00003"
         height="20.000004"
         width="20.000004"
         id="rect7256"
         style="opacity:1;fill:#3399ff;fill-opacity:0;stroke:none;stroke-width:1;stroke-miterlimit:4;stroke-dasharray:none;stroke-dashoffset:0;stroke-opacity:1" />
      <path
         inkscape:connector-curvature="0"
         id="path7264"
         d="m 498.00001,766.36206 v 1.33334 l 2.66667,2.66667 -2.66667,2.66667 v 1.33333 h 1.33333 l 2.66667,-2.66667 2.66667,2.66667 h 1.33333 v -1.33333 l -2.66667,-2.66667 2.66667,-2.66667 v -1.33334 h -1.33333 l -2.66667,2.66668 -2.66667,-2.66668 z"
         style="fill:#eeeeee;fill-opacity:1;stroke:none" />
    </g>
    <g
       transform="translate(-202.00003,-677.36213)"
       id="titlebutton-minimize-dark"
       inkscape:label="#g5378">
      <rect
         ry="1.6668506"
         y="760.36212"
         x="444.00003"
         height="20.000004"
         width="20.000004"
         id="rect7258"
         style="opacity:1;fill:#3399ff;fill-opacity:0;stroke:none;stroke-width:1;stroke-miterlimit:4;stroke-dasharray:none;stroke-dashoffset:0;stroke-opacity:1" />
      <rect
         style="opacity:1;fill:#eeeeee;fill-opacity:1;stroke:none;stroke-width:1;stroke-miterlimit:4;stroke-dasharray:none;stroke-dashoffset:0;stroke-opacity:1"
         id="rect7268"
         width="8.000001"
         height="2.0000002"
         x="450.00003"
         y="772.36212" />
    </g>
    <g
       transform="translate(-202.00003,-677.36213)"
       id="titlebutton-maximize-dark"
       inkscape:label="#g5374">
      <rect
         style="opacity:1;fill:#3399ff;fill-opacity:0;stroke:none;stroke-width:1;stroke-miterlimit:4;stroke-dasharray:none;stroke-dashoffset:0;stroke-opacity:1"
         id="rect7262"
         width="20.000004"
         height="20.000004"
         x="468.00003"
         y="760.36212"
         ry="1.6668506" />
      <path
         style="fill:#eeeeee;fill-opacity:1;fill-rule:evenodd;stroke:none;stroke-width:1px;stroke-linecap:butt;stroke-linejoin:miter;stroke-opacity:1"
         d="m 476.00001,766.36206 2,2.00001 h 2 v 2 l 2,2 v -6.00001 z m -2,2.00001 v 6 h 6 l -2,-2 h -2 v -2 z"
         id="path7272"
         inkscape:connector-curvature="0" />
    </g>
    <g
       transform="translate(-202.00003,-677.36219)"
       id="titlebutton-close-hover-dark"
       inkscape:label="#g6209">
      <rect
         style="opacity:1;fill:#ff7373;fill-opacity:1;stroke:none;stroke-width:1;stroke-miterlimit:4;stroke-dasharray:none;stroke-dashoffset:0;stroke-opacity:1"
         id="rect7274"
         width="20.000004"
         height="20.000004"
         x="492.00003"
         y="792.36218"
         ry="1.6668506" />
      <path
         style="fill:#ffffff;fill-opacity:1;stroke:none"
         d="m 498.00001,798.36213 v 1.33333 l 2.66667,2.66667 -2.66667,2.66667 v 1.33333 h 1.33333 l 2.66667,-2.66667 2.66667,2.66667 h 1.33333 v -1.33333 l -2.66667,-2.66667 2.66667,-2.66667 v -1.33333 h -1.33333 l -2.66667,2.66667 -2.66667,-2.66667 z"
         id="path7276"
         inkscape:connector-curvature="0" />
    </g>
    <g
       transform="translate(-202.00003,-677.36219)"
       id="titlebutton-minimize-hover-dark"
       inkscape:label="#g6217">
      <rect
         style="opacity:1;fill:#88cc00;fill-opacity:1;stroke:none;stroke-width:1;stroke-miterlimit:4;stroke-dasharray:none;stroke-dashoffset:0;stroke-opacity:1"
         id="rect7278"
         width="20.000004"
         height="20.000004"
         x="444.00003"
         y="792.36218"
         ry="1.6668506" />
      <rect
         y="804.36218"
         x="450.00003"
         height="2.0000002"
         width="8.000001"
         id="rect7280"
         style="opacity:1;fill:#ffffff;fill-opacity:1;stroke:none;stroke-width:1;stroke-miterlimit:4;stroke-dasharray:none;stroke-dashoffset:0;stroke-opacity:1" />
    </g>
    <g
       transform="translate(-202.00003,-677.36219)"
       id="titlebutton-maximize-hover-dark"
       inkscape:label="#g6213">
      <rect
         ry="1.6668506"
         y="792.36218"
         x="468.00003"
         height="20.000004"
         width="20.000004"
         id="rect7282"
         style="opacity:1;fill:#88cc00;fill-opacity:1;stroke:none;stroke-width:1;stroke-miterlimit:4;stroke-dasharray:none;stroke-dashoffset:0;stroke-opacity:1" />
      <path
         inkscape:connector-curvature="0"
         id="path7284"
         d="m 476.00001,798.36213 2,2 h 2 v 2 l 2,2 v -6 z m -2,2 v 6 h 6 l -2,-2 h -2 v -2 z"
         style="fill:#ffffff;fill-opacity:1;fill-rule:evenodd;stroke:none;stroke-width:1px;stroke-linecap:butt;stroke-linejoin:miter;stroke-opacity:1" />
    </g>
    <g
       transform="translate(-202.00002,-677.3621)"
       id="titlebutton-close-backdrop-dark"
       inkscape:label="#g5355-5">
      <g
         inkscape:label="#g6205"
         id="titlebutton-close-backdrop-dark-5"
         transform="translate(-8.3841861e-7,-6.0161582e-5)">
        <path
           inkscape:connector-curvature="0"
           id="path7288-2"
           d="m 578.00003,766.36212 v 1.33334 l 2.66667,2.66667 -2.66667,2.66667 v 1.33333 h 1.33333 l 2.66667,-2.66667 2.66667,2.66667 h 1.33333 v -1.33333 l -2.66667,-2.66667 2.66667,-2.66667 v -1.33334 h -1.33333 l -2.66667,2.66668 -2.66667,-2.66668 z"
           style="opacity:0.5;fill:#ffffff;fill-opacity:1;stroke:none" />
        <rect
           ry="1.6668506"
           y="760.36218"
           x="572.00006"
           height="20.000004"
           width="20.000004"
           id="rect7298-3"
           style="opacity:1;fill:#3399ff;fill-opacity:0;stroke:none;stroke-width:1;stroke-miterlimit:4;stroke-dasharray:none;stroke-dashoffset:0;stroke-opacity:1" />
      </g>
    </g>
    <g
       transform="translate(-202.00002,-677.3621)"
       id="titlebutton-maximize-backdrop-dark"
       inkscape:label="#g5360-8">
      <g
         inkscape:label="#g6201"
         id="titlebutton-maximize-backdrop-dark-8"
         transform="translate(-8.3841861e-7,-6.0161582e-5)">
        <path
           style="opacity:0.5;fill:#ffffff;fill-opacity:1;fill-rule:evenodd;stroke:none;stroke-width:1px;stroke-linecap:butt;stroke-linejoin:miter;stroke-opacity:1"
           d="m 556.00002,766.36212 2,2.00001 h 2 v 2 l 2,2 v -6.00001 z m -2,2.00001 v 6 h 6 l -2,-2 h -2 v -2 z"
           id="path7296-1"
           inkscape:connector-curvature="0" />
        <rect
           style="opacity:1;fill:#3399ff;fill-opacity:0;stroke:none;stroke-width:1;stroke-miterlimit:4;stroke-dasharray:none;stroke-dashoffset:0;stroke-opacity:1"
           id="rect7302-3"
           width="20.000004"
           height="20.000004"
           x="548.00006"
           y="760.36218"
           ry="1.6668506" />
      </g>
    </g>
    <g
       transform="translate(-202.00003,-677.3621)"
       id="titlebutton-minimize-backdrop-dark"
       inkscape:label="#g5365-8">
      <g
         inkscape:label="#g6197"
         id="titlebutton-minimize-backdrop-dark-1"
         transform="translate(-8.3841861e-7,-6.0161582e-5)">
        <rect
           style="opacity:0.5;fill:#ffffff;fill-opacity:1;stroke:none;stroke-width:1;stroke-miterlimit:4;stroke-dasharray:none;stroke-dashoffset:0;stroke-opacity:1"
           id="rect7292-9"
           width="8.000001"
           height="2.0000002"
           x="530.00006"
           y="772.36218" />
        <rect
           ry="1.6668506"
           y="760.36218"
           x="524.00006"
           height="20.000004"
           width="20.000004"
           id="rect7300-9"
           style="opacity:1;fill:#3399ff;fill-opacity:0;stroke:none;stroke-width:1;stroke-miterlimit:4;stroke-dasharray:none;stroke-dashoffset:0;stroke-opacity:1" />
      </g>
    </g>
    <g
       inkscape:label="#g6173"
       id="titlebutton-close-active"
       transform="translate(179,-781.36215)">
      <rect
         style="opacity:1;fill:#d35f5f;fill-opacity:1;stroke:none;stroke-width:1;stroke-miterlimit:4;stroke-dasharray:none;stroke-dashoffset:0;stroke-opacity:1"
         id="rect250"
         width="20.000006"
         height="20.000006"
         x="192.00002"
         y="792.36218"
         ry="1.6668508" />
      <path
         style="opacity:0.5;fill:#000000;fill-opacity:1;stroke:none"
         d="m 198,798.36208 v 1.33333 l 2.66667,2.66667 L 198,805.02875 v 1.33333 h 1.33333 L 202,803.69541 l 2.66667,2.66667 H 206 v -1.33333 L 203.33333,802.36208 206,799.69541 v -1.33333 h -1.33333 L 202,801.02875 l -2.66667,-2.66667 z"
         id="path252"
         inkscape:connector-curvature="0" />
    </g>
    <g
       inkscape:label="#g6181"
       id="titlebutton-minimize-active"
       transform="translate(179,-781.36215)">
      <rect
         style="opacity:1;fill:#88cc00;fill-opacity:1;stroke:none;stroke-width:1;stroke-miterlimit:4;stroke-dasharray:none;stroke-dashoffset:0;stroke-opacity:1"
         id="rect256"
         width="20.000006"
         height="20.000006"
         x="144.00002"
         y="792.36218"
         ry="1.6668508" />
      <rect
         y="804.36218"
         x="150.00002"
         height="2.0000005"
         width="8.0000019"
         id="rect258"
         style="opacity:0.5;fill:#000000;fill-opacity:1;stroke:none;stroke-width:1;stroke-miterlimit:4;stroke-dasharray:none;stroke-dashoffset:0;stroke-opacity:1" />
    </g>
    <g
       inkscape:label="#g6177"
       id="titlebutton-maximize-active"
       transform="translate(179,-781.36215)">
      <rect
         ry="1.6668508"
         y="792.36218"
         x="168.00002"
         height="20.000006"
         width="20.000006"
         id="rect262"
         style="opacity:1;fill:#88cc00;fill-opacity:1;stroke:none;stroke-width:1;stroke-miterlimit:4;stroke-dasharray:none;stroke-dashoffset:0;stroke-opacity:1" />
      <path
         inkscape:connector-curvature="0"
         id="path264"
         d="m 175.99999,798.36208 2,2 h 2 v 2 l 2.00001,2 v -6 z m -2,2 v 6 h 6 l -2,-2 h -2 v -2 z"
         style="opacity:0.5;fill:#000000;fill-opacity:1;fill-rule:evenodd;stroke:none;stroke-width:1px;stroke-linecap:butt;stroke-linejoin:miter;stroke-opacity:1" />
    </g>
    <g
       inkscape:label="#g6209"
       id="titlebutton-close-active-dark"
       transform="translate(-122.00003,-677.36219)">
      <rect
         ry="1.6668506"
         y="792.36218"
         x="492.00003"
         height="20.000004"
         width="20.000004"
         id="rect268"
         style="opacity:1;fill:#d35f5f;fill-opacity:1;stroke:none;stroke-width:1;stroke-miterlimit:4;stroke-dasharray:none;stroke-dashoffset:0;stroke-opacity:1" />
      <path
         inkscape:connector-curvature="0"
         id="path270"
         d="m 498.00001,798.36213 v 1.33333 l 2.66667,2.66667 -2.66667,2.66667 v 1.33333 h 1.33333 l 2.66667,-2.66667 2.66667,2.66667 h 1.33333 v -1.33333 l -2.66667,-2.66667 2.66667,-2.66667 v -1.33333 h -1.33333 l -2.66667,2.66667 -2.66667,-2.66667 z"
         style="opacity:0.5;fill:#000000;fill-opacity:1;stroke:none" />
    </g>
    <g
       inkscape:label="#g6217"
       id="titlebutton-minimize-active-dark"
       transform="translate(-122.00003,-677.36219)">
      <rect
         ry="1.6668506"
         y="792.36218"
         x="444.00003"
         height="20.000004"
         width="20.000004"
         id="rect274"
         style="opacity:1;fill:#88cc00;fill-opacity:1;stroke:none;stroke-width:1;stroke-miterlimit:4;stroke-dasharray:none;stroke-dashoffset:0;stroke-opacity:1" />
      <rect
         style="opacity:0.5;fill:#000000;fill-opacity:1;stroke:none;stroke-width:1;stroke-miterlimit:4;stroke-dasharray:none;stroke-dashoffset:0;stroke-opacity:1"
         id="rect276"
         width="8.000001"
         height="2.0000002"
         x="450.00003"
         y="804.36218" />
    </g>
    <g
       inkscape:label="#g6213"
       id="titlebutton-maximize-active-dark"
       transform="translate(-122.00003,-677.36219)">
      <rect
         style="opacity:1;fill:#88cc00;fill-opacity:1;stroke:none;stroke-width:1;stroke-miterlimit:4;stroke-dasharray:none;stroke-dashoffset:0;stroke-opacity:1"
         id="rect280"
         width="20.000004"
         height="20.000004"
         x="468.00003"
         y="792.36218"
         ry="1.6668506" />
      <path
         style="opacity:0.5;fill:#000000;fill-opacity:1;fill-rule:evenodd;stroke:none;stroke-width:1px;stroke-linecap:butt;stroke-linejoin:miter;stroke-opacity:1"
         d="m 476.00001,798.36213 2,2 h 2 v 2 l 2,2 v -6 z m -2,2 v 6 h 6 l -2,-2 h -2 v -2 z"
         id="path282"
         inkscape:connector-curvature="0" />
    </g>
    <g
       id="titlebutton-restore"
       transform="translate(-108.49257,1.0537771)">
      <rect
         style="opacity:1;fill:#3399ff;fill-opacity:0;stroke:none;stroke-width:1;stroke-miterlimit:4;stroke-dasharray:none;stroke-dashoffset:0;stroke-opacity:1"
         id="rect1001"
         width="20.000006"
         height="20.000006"
         x="511"
         y="-21.999937"
         ry="1.6668508" />
      <path
         sodipodi:nodetypes="ccccccc"
         inkscape:connector-curvature="0"
         id="path1018"
         d="m 521,-6 v -6 h -6 l 2,2 h 2 v 2 z"
         style="fill:#424242;fill-opacity:1;fill-rule:evenodd;stroke:none;stroke-width:1px;stroke-linecap:butt;stroke-linejoin:miter;stroke-opacity:1" />
      <path
         style="fill:#424242;fill-opacity:1;fill-rule:evenodd;stroke:none;stroke-width:1px;stroke-linecap:butt;stroke-linejoin:miter;stroke-opacity:1"
         d="m 521,-18 v 6 h 6 l -2,-2 h -2 v -2 z"
         id="path1020"
         inkscape:connector-curvature="0"
         sodipodi:nodetypes="ccccccc" />
    </g>
    <g
       id="titlebutton-restore-hover"
       transform="translate(-108.49257,1.0537771)"
       inkscape:label="#g1048">
      <rect
         ry="1.6668508"
         y="10.000063"
         x="511"
         height="20.000006"
         width="20.000006"
         id="rect1009"
         style="opacity:1;fill:#88cc00;fill-opacity:1;stroke:none;stroke-width:1;stroke-miterlimit:4;stroke-dasharray:none;stroke-dashoffset:0;stroke-opacity:1" />
      <g
         style="fill:#ffffff"
         transform="translate(-31.999997,27.000066)"
         id="g1042">
        <path
           sodipodi:nodetypes="ccccccc"
           inkscape:connector-curvature="0"
           id="path1031"
           d="m 553,-1 v -6 h -6 l 2,2 h 2 v 2 z"
           style="fill:#ffffff;fill-opacity:1;fill-rule:evenodd;stroke:none;stroke-width:1px;stroke-linecap:butt;stroke-linejoin:miter;stroke-opacity:1" />
        <path
           style="fill:#ffffff;fill-opacity:1;fill-rule:evenodd;stroke:none;stroke-width:1px;stroke-linecap:butt;stroke-linejoin:miter;stroke-opacity:1"
           d="m 553,-13 v 6 h 6 l -2,-2 h -2 v -2 z"
           id="path1033"
           inkscape:connector-curvature="0"
           sodipodi:nodetypes="ccccccc" />
      </g>
    </g>
    <g
       transform="translate(-84.00961,1.0537771)"
       id="titlebutton-restore-backdrop"
       inkscape:label="#g1056">
      <rect
         ry="1.6668508"
         y="-21.999937"
         x="511"
         height="20.000006"
         width="20.000006"
         id="rect1050"
         style="opacity:1;fill:#3399ff;fill-opacity:0;stroke:none;stroke-width:1;stroke-miterlimit:4;stroke-dasharray:none;stroke-dashoffset:0;stroke-opacity:1" />
      <path
         style="opacity:0.5;fill:#000000;fill-opacity:0.9451218;fill-rule:evenodd;stroke:none;stroke-width:1px;stroke-linecap:butt;stroke-linejoin:miter;stroke-opacity:1"
         d="m 521,-6 v -6 h -6 l 2,2 h 2 v 2 z"
         id="path1052"
         inkscape:connector-curvature="0"
         sodipodi:nodetypes="ccccccc" />
      <path
         sodipodi:nodetypes="ccccccc"
         inkscape:connector-curvature="0"
         id="path1054"
         d="m 521,-18 v 6 h 6 l -2,-2 h -2 v -2 z"
         style="opacity:0.5;fill:#000000;fill-opacity:0.9451218;fill-rule:evenodd;stroke:none;stroke-width:1px;stroke-linecap:butt;stroke-linejoin:miter;stroke-opacity:1" />
    </g>
    <g
       transform="translate(-84.00961,1.0537771)"
       id="titlebutton-restore-active"
       inkscape:label="#g1066">
      <rect
         style="opacity:1;fill:#88cc00;fill-opacity:1;stroke:none;stroke-width:1;stroke-miterlimit:4;stroke-dasharray:none;stroke-dashoffset:0;stroke-opacity:1"
         id="rect1058"
         width="20.000006"
         height="20.000006"
         x="511"
         y="10.000063"
         ry="1.6668508" />
      <g
         id="g1064"
         transform="translate(-31.999997,27.000066)"
         style="fill:#ffffff">
        <path
           style="fill:#000000;fill-opacity:1;fill-rule:evenodd;stroke:none;stroke-width:1px;stroke-linecap:butt;stroke-linejoin:miter;stroke-opacity:1;opacity:0.5"
           d="m 553,-1 v -6 h -6 l 2,2 h 2 v 2 z"
           id="path1060"
           inkscape:connector-curvature="0"
           sodipodi:nodetypes="ccccccc" />
        <path
           sodipodi:nodetypes="ccccccc"
           inkscape:connector-curvature="0"
           id="path1062"
           d="m 553,-13 v 6 h 6 l -2,-2 h -2 v -2 z"
           style="fill:#000000;fill-opacity:1;fill-rule:evenodd;stroke:none;stroke-width:1px;stroke-linecap:butt;stroke-linejoin:miter;stroke-opacity:1;opacity:0.5" />
      </g>
    </g>
    <g
       transform="translate(-108.49257,104.92218)"
       id="titlebutton-restore-dark"
       inkscape:label="#g1074">
      <rect
         ry="1.6668508"
         y="-21.999937"
         x="511"
         height="20.000006"
         width="20.000006"
         id="rect1068"
         style="opacity:1;fill:#3399ff;fill-opacity:0;stroke:none;stroke-width:1;stroke-miterlimit:4;stroke-dasharray:none;stroke-dashoffset:0;stroke-opacity:1" />
      <path
         style="fill:#eeeeee;fill-opacity:1;fill-rule:evenodd;stroke:none;stroke-width:1px;stroke-linecap:butt;stroke-linejoin:miter;stroke-opacity:1"
         d="m 521,-6 v -6 h -6 l 2,2 h 2 v 2 z"
         id="path1070"
         inkscape:connector-curvature="0"
         sodipodi:nodetypes="ccccccc" />
      <path
         sodipodi:nodetypes="ccccccc"
         inkscape:connector-curvature="0"
         id="path1072"
         d="m 521,-18 v 6 h 6 l -2,-2 h -2 v -2 z"
         style="fill:#eeeeee;fill-opacity:1;fill-rule:evenodd;stroke:none;stroke-width:1px;stroke-linecap:butt;stroke-linejoin:miter;stroke-opacity:1" />
    </g>
    <g
       transform="translate(-108.49257,104.92218)"
       id="titlebutton-restore-hover-dark"
       inkscape:label="#g1084">
      <rect
         style="opacity:1;fill:#88cc00;fill-opacity:1;stroke:none;stroke-width:1;stroke-miterlimit:4;stroke-dasharray:none;stroke-dashoffset:0;stroke-opacity:1"
         id="rect1076"
         width="20.000006"
         height="20.000006"
         x="511"
         y="10.000063"
         ry="1.6668508" />
      <g
         id="g1082"
         transform="translate(-31.999997,27.000066)"
         style="fill:#ffffff">
        <path
           style="fill:#ffffff;fill-opacity:1;fill-rule:evenodd;stroke:none;stroke-width:1px;stroke-linecap:butt;stroke-linejoin:miter;stroke-opacity:1"
           d="m 553,-1 v -6 h -6 l 2,2 h 2 v 2 z"
           id="path1078"
           inkscape:connector-curvature="0"
           sodipodi:nodetypes="ccccccc" />
        <path
           sodipodi:nodetypes="ccccccc"
           inkscape:connector-curvature="0"
           id="path1080"
           d="m 553,-13 v 6 h 6 l -2,-2 h -2 v -2 z"
           style="fill:#ffffff;fill-opacity:1;fill-rule:evenodd;stroke:none;stroke-width:1px;stroke-linecap:butt;stroke-linejoin:miter;stroke-opacity:1" />
      </g>
    </g>
    <g
       id="titlebutton-restore-backdrop-dark"
       transform="translate(-84.00961,104.92218)"
       inkscape:label="#g1092">
      <rect
         style="opacity:1;fill:#3399ff;fill-opacity:0;stroke:none;stroke-width:1;stroke-miterlimit:4;stroke-dasharray:none;stroke-dashoffset:0;stroke-opacity:1"
         id="rect1086"
         width="20.000006"
         height="20.000006"
         x="511"
         y="-21.999937"
         ry="1.6668508" />
      <path
         sodipodi:nodetypes="ccccccc"
         inkscape:connector-curvature="0"
         id="path1088"
         d="m 521,-6 v -6 h -6 l 2,2 h 2 v 2 z"
         style="opacity:0.5;fill:#ffffff;fill-opacity:0.9451218;fill-rule:evenodd;stroke:none;stroke-width:1px;stroke-linecap:butt;stroke-linejoin:miter;stroke-opacity:1" />
      <path
         style="opacity:0.5;fill:#ffffff;fill-opacity:0.9451218;fill-rule:evenodd;stroke:none;stroke-width:1px;stroke-linecap:butt;stroke-linejoin:miter;stroke-opacity:1"
         d="m 521,-18 v 6 h 6 l -2,-2 h -2 v -2 z"
         id="path1090"
         inkscape:connector-curvature="0"
         sodipodi:nodetypes="ccccccc" />
    </g>
    <g
       id="titlebutton-restore-active-dark"
       transform="translate(-84.00961,104.92218)"
       inkscape:label="#g1102">
      <rect
         ry="1.6668508"
         y="10.000063"
         x="511"
         height="20.000006"
         width="20.000006"
         id="rect1094"
         style="opacity:1;fill:#88cc00;fill-opacity:1;stroke:none;stroke-width:1;stroke-miterlimit:4;stroke-dasharray:none;stroke-dashoffset:0;stroke-opacity:1" />
      <g
         style="fill:#ffffff"
         transform="translate(-31.999997,27.000066)"
         id="g1100">
        <path
           sodipodi:nodetypes="ccccccc"
           inkscape:connector-curvature="0"
           id="path1096"
           d="m 553,-1 v -6 h -6 l 2,2 h 2 v 2 z"
           style="fill:#000000;fill-opacity:1;fill-rule:evenodd;stroke:none;stroke-width:1px;stroke-linecap:butt;stroke-linejoin:miter;stroke-opacity:1;opacity:0.5" />
        <path
           style="fill:#000000;fill-opacity:1;fill-rule:evenodd;stroke:none;stroke-width:1px;stroke-linecap:butt;stroke-linejoin:miter;stroke-opacity:1;opacity:0.5"
           d="m 553,-13 v 6 h 6 l -2,-2 h -2 v -2 z"
           id="path1098"
           inkscape:connector-curvature="0"
           sodipodi:nodetypes="ccccccc" />
      </g>
    </g>
  </g>
</svg>
